chisel-counter/simx.vcd
$version Generated by VerilatedVcd $end
$date Thu Mar  3 11:11:59 2022 $end
$timescale 1ps $end

 $scope module TOP $end
  $var wire  1 # clock $end
  $var wire  1 % io_tick $end
  $var wire  1 $ reset $end
  $scope module SimTop $end
   $var wire  1 # clock $end
   $var wire  1 % io_tick $end
   $var wire  1 # myCounter_clock $end
   $var wire  1 & myCounter_io_tick $end
   $var wire  1 $ myCounter_reset $end
   $var wire  1 $ reset $end
   $scope module myCounter $end
    $var wire 32 ' c [31:0] $end
    $var wire  1 # clock $end
    $var wire  1 & io_tick $end
    $var wire  1 $ reset $end
   $upscope $end
  $upscope $end
 $upscope $end
$enddefinitions $end


#0
1#
0$
0%
0&
b00000000000000000000000000000000 '
#1
0#
#2
1#
b00000000000000000000000000000001 '
#3
0#
#4
1#
b00000000000000000000000000000010 '
#5
0#
#6
1#
b00000000000000000000000000000011 '
#7
0#
#8
1#
b00000000000000000000000000000100 '
#9
0#
#10
1#
b00000000000000000000000000000101 '
#11
0#
#12
1#
b00000000000000000000000000000110 '
#13
0#
#14
1#
b00000000000000000000000000000111 '
#15
0#
#16
1#
b00000000000000000000000000001000 '
#17
0#
#18
1#
b00000000000000000000000000001001 '
#19
0#
#20
1#
b00000000000000000000000000001010 '
#21
0#
#22
1#
b00000000000000000000000000001011 '
#23
0#
#24
1#
b00000000000000000000000000001100 '
#25
0#
#26
1#
b00000000000000000000000000001101 '
#27
0#
#28
1#
b00000000000000000000000000001110 '
#29
0#
#30
1#
b00000000000000000000000000001111 '
#31
0#
#32
1#
1%
1&
b00000000000000000000000000010000 '
#33
0#
#34
1#
0%
0&
b00000000000000000000000000000000 '
#35
0#
#36
1#
b00000000000000000000000000000001 '
#37
0#
#38
1#
b00000000000000000000000000000010 '
#39
0#
#40
1#
b00000000000000000000000000000011 '
#41
0#
#42
1#
b00000000000000000000000000000100 '
#43
0#
#44
1#
b00000000000000000000000000000101 '
#45
0#
#46
1#
b00000000000000000000000000000110 '
#47
0#
#48
1#
b00000000000000000000000000000111 '
#49
0#
#50
1#
b00000000000000000000000000001000 '
#51
0#
#52
1#
b00000000000000000000000000001001 '
#53
0#
#54
1#
b00000000000000000000000000001010 '
#55
0#
#56
1#
b00000000000000000000000000001011 '
#57
0#
#58
1#
b00000000000000000000000000001100 '
#59
0#
#60
1#
b00000000000000000000000000001101 '
#61
0#
#62
1#
b00000000000000000000000000001110 '
#63
0#
#64
1#
b00000000000000000000000000001111 '
#65
0#
#66
1#
1%
1&
b00000000000000000000000000010000 '
#67
0#
#68
1#
0%
0&
b00000000000000000000000000000000 '
#69
0#
#70
1#
b00000000000000000000000000000001 '
#71
0#
#72
1#
b00000000000000000000000000000010 '
#73
0#
#74
1#
b00000000000000000000000000000011 '
#75
0#
#76
1#
b00000000000000000000000000000100 '
#77
0#
#78
1#
b00000000000000000000000000000101 '
#79
0#
#80
1#
b00000000000000000000000000000110 '
#81
0#
#82
1#
b00000000000000000000000000000111 '
#83
0#
#84
1#
b00000000000000000000000000001000 '
#85
0#
#86
1#
b00000000000000000000000000001001 '
#87
0#
#88
1#
b00000000000000000000000000001010 '
#89
0#
#90
1#
b00000000000000000000000000001011 '
#91
0#
#92
1#
b00000000000000000000000000001100 '
#93
0#
#94
1#
b00000000000000000000000000001101 '
#95
0#
#96
1#
b00000000000000000000000000001110 '
#97
0#
#98
1#
b00000000000000000000000000001111 '
#99
0#
#100
1#
1%
1&
b00000000000000000000000000010000 '
#101
0#
#102
1#
0%
0&
b00000000000000000000000000000000 '
#103
0#
#104
1#
b00000000000000000000000000000001 '
#105
0#
#106
1#
b00000000000000000000000000000010 '
#107
0#
#108
1#
b00000000000000000000000000000011 '
#109
0#
#110
1#
b00000000000000000000000000000100 '
#111
0#
#112
1#
b00000000000000000000000000000101 '
#113
0#
#114
1#
b00000000000000000000000000000110 '
#115
0#
#116
1#
b00000000000000000000000000000111 '
#117
0#
#118
1#
b00000000000000000000000000001000 '
#119
0#
#120
1#
b00000000000000000000000000001001 '
#121
0#
#122
1#
b00000000000000000000000000001010 '
#123
0#
#124
1#
b00000000000000000000000000001011 '
#125
0#
#126
1#
b00000000000000000000000000001100 '
#127
0#
#128
1#
b00000000000000000000000000001101 '
#129
0#
#130
1#
b00000000000000000000000000001110 '
#131
0#
#132
1#
b00000000000000000000000000001111 '
#133
0#
#134
1#
1%
1&
b00000000000000000000000000010000 '
#135
0#
#136
1#
0%
0&
b00000000000000000000000000000000 '
#137
0#
#138
1#
b00000000000000000000000000000001 '
#139
0#
#140
1#
b00000000000000000000000000000010 '
#141
0#
#142
1#
b00000000000000000000000000000011 '
#143
0#
#144
1#
b00000000000000000000000000000100 '
#145
0#
#146
1#
b00000000000000000000000000000101 '
#147
0#
#148
1#
b00000000000000000000000000000110 '
#149
0#
#150
1#
b00000000000000000000000000000111 '
#151
0#
#152
1#
b00000000000000000000000000001000 '
#153
0#
#154
1#
b00000000000000000000000000001001 '
#155
0#
#156
1#
b00000000000000000000000000001010 '
#157
0#
#158
1#
b00000000000000000000000000001011 '
#159
0#
#160
1#
b00000000000000000000000000001100 '
#161
0#
#162
1#
b00000000000000000000000000001101 '
#163
0#
#164
1#
b00000000000000000000000000001110 '
#165
0#
#166
1#
b00000000000000000000000000001111 '
#167
0#
#168
1#
1%
1&
b00000000000000000000000000010000 '
#169
0#
#170
1#
0%
0&
b00000000000000000000000000000000 '
#171
0#
#172
1#
b00000000000000000000000000000001 '
#173
0#
#174
1#
b00000000000000000000000000000010 '
#175
0#
#176
1#
b00000000000000000000000000000011 '
#177
0#
#178
1#
b00000000000000000000000000000100 '
#179
0#
#180
1#
b00000000000000000000000000000101 '
#181
0#
#182
1#
b00000000000000000000000000000110 '
#183
0#
#184
1#
b00000000000000000000000000000111 '
#185
0#
#186
1#
b00000000000000000000000000001000 '
#187
0#
#188
1#
b00000000000000000000000000001001 '
#189
0#
#190
1#
b00000000000000000000000000001010 '
#191
0#
#192
1#
b00000000000000000000000000001011 '
#193
0#
#194
1#
b00000000000000000000000000001100 '
#195
0#
#196
1#
b00000000000000000000000000001101 '
#197
0#
#198
1#
b00000000000000000000000000001110 '
